<svg width="522" height="637" viewBox="0 0 522 637" fill="none" xmlns="http://www.w3.org/2000/svg">
<g opacity="0.8" filter="url(#filter0_f)">
<circle cx="-154" cy="-39" r="376" fill="#907AD6"/>
</g>
<defs>
<filter id="filter0_f" x="-830" y="-715" width="1352" height="1352" filterUnits="userSpaceOnUse" color-interpolation-filters="sRGB">
<feFlood flood-opacity="0" result="BackgroundImageFix"/>
<feBlend mode="normal" in="SourceGraphic" in2="BackgroundImageFix" result="shape"/>
<feGaussianBlur stdDeviation="150" result="effect1_foregroundBlur"/>
</filter>
</defs>
</svg>
